{
  "created_at": "2025-04-18T04:50:42.690393+00:00",
  "elapsed": 0.320938,
  "encoding": "utf-8",
  "headers": {
    "Connection": "keep-alive",
    "Content-Encoding": "gzip",
    "Content-Type": "application/json",
    "Date": "Fri, 18 Apr 2025 04:50:42 GMT",
    "Keep-Alive": "timeout=20",
    "Server": "DCSaaS/httpd",
    "Transfer-Encoding": "chunked",
    "X-Content-Type-Options": "nosniff",
    "X-Powered-By": "DCSaaS",
    "X-XSS-Protection": "1; mode=block"
  },
  "reason": "OK",
  "request": {
    "body": "",
    "headers": {
      "Accept": "*/*",
      "Accept-Encoding": "gzip, deflate",
      "Connection": "keep-alive",
      "User-Agent": "python-requests/2.32.3"
    },
    "method": "GET",
    "url": "https://synthetikaeu.com/webapi/front/en_US/search/short-list/products?org=Tartaric+Acid&page=3&text=Tartaric+Acid"
  },
  "status_code": 200,
  "url": "https://synthetikaeu.com/webapi/front/en_US/search/short-list/products?org=Tartaric+Acid&page=3&text=Tartaric+Acid",
  "_decoded_content": {
    "pages": 3,
    "page": 3,
    "count": 11,
    "max_score": 179767.44,
    "list": [
      {
        "id": "126",
        "product_code": "231141003",
        "name": "Sodium Potassium Tartarate ( Rochelle Salt ) - 500g",
        "price": "\u20ac32.62",
        "img": "/userdata/public/gfx/217/81258bc76deb0da600b4c323d0bef8a2.png",
        "imgWebp": "/userdata/public/gfx/217/81258bc76deb0da600b4c323d0bef8a2.webp",
        "url": "/en_US/p/Sodium-Potassium-Tartarate-Rochelle-Salt-500g/126",
        "category": {
          "id": "98",
          "name": "Sodium",
          "breadcrumbs": "INORGANIC COMPOUNDS > Salts > Sodium"
        },
        "product_codes": [
          {
            "label": "sku",
            "value": "231141003"
          },
          {
            "label": "ean",
            "value": "5906288610991"
          }
        ],
        "score": 23265.764,
        "rate": "0",
        "options_stock": false,
        "attributes": {
          "stock": "999 szt.",
          "producer_name": "SYNTHETIKA"
        },
        "promotion_price": null,
        "active": true,
        "availabilities": {
          "label": "Large quantity",
          "can_buy": true
        }
      }
    ],
    "suggests": []
  }
}