{
  "created_at": "2025-04-18T04:50:42.024488+00:00",
  "elapsed": 2.494915,
  "encoding": "utf-8",
  "headers": {
    "Connection": "keep-alive",
    "Content-Encoding": "gzip",
    "Content-Type": "application/json",
    "Date": "Fri, 18 Apr 2025 04:50:41 GMT",
    "Keep-Alive": "timeout=20",
    "Server": "DCSaaS/httpd",
    "Transfer-Encoding": "chunked",
    "X-Content-Type-Options": "nosniff",
    "X-Powered-By": "DCSaaS",
    "X-XSS-Protection": "1; mode=block"
  },
  "reason": "OK",
  "request": {
    "body": "",
    "headers": {
      "Accept": "*/*",
      "Accept-Encoding": "gzip, deflate",
      "Connection": "keep-alive",
      "User-Agent": "python-requests/2.32.3"
    },
    "method": "GET",
    "url": "https://synthetikaeu.com/webapi/front/en_US/search/short-list/products?org=Tartaric+Acid&page=1&text=Tartaric+Acid"
  },
  "status_code": 200,
  "url": "https://synthetikaeu.com/webapi/front/en_US/search/short-list/products?org=Tartaric+Acid&page=1&text=Tartaric+Acid",
  "_decoded_content": {
    "pages": 3,
    "page": 1,
    "count": 11,
    "max_score": 179767.44,
    "list": [
      {
        "id": "108",
        "product_code": "231140903",
        "name": "Tartaric Acid - L(+)-Tartaric Acid - 2,3-Dihydroxysuccinic acid - Threaric acid - Uvic acid - - 500g",
        "price": "\u20ac11.09",
        "img": "/userdata/public/gfx/199/2be48efd5a55c7db52587be58dd90ed0.png",
        "imgWebp": "/userdata/public/gfx/199/2be48efd5a55c7db52587be58dd90ed0.webp",
        "url": "/en_US/p/Tartaric-Acid-L-Tartaric-Acid-2%2C3-Dihydroxysuccinic-acid-Threaric-acid-Uvic-acid-500g/108",
        "category": {
          "id": 53,
          "name": "Carboxylic Acids",
          "breadcrumbs": "ORGANIC COMPOUNDS > Carboxylic Acids"
        },
        "product_codes": [
          {
            "label": "sku",
            "value": "231140903"
          },
          {
            "label": "ean",
            "value": "5906288608912"
          }
        ],
        "score": 179767.44,
        "rate": "0",
        "options_stock": false,
        "attributes": {
          "stock": "999 szt.",
          "producer_name": "SYNTHETIKA"
        },
        "promotion_price": null,
        "active": true,
        "availabilities": {
          "label": "Large quantity",
          "can_buy": true
        }
      },
      {
        "id": "110",
        "product_code": "231140914",
        "name": "Tartaric Acid - L(+)-Tartaric Acid - 2,3-Dihydroxysuccinic acid - Threaric acid - Uvic acid - - 10g",
        "price": "\u20ac3.64",
        "img": "/userdata/public/gfx/201/10326336ff03dc21999a85e920730f9f.png",
        "imgWebp": "/userdata/public/gfx/201/10326336ff03dc21999a85e920730f9f.webp",
        "url": "/en_US/p/Tartaric-Acid-L-Tartaric-Acid-2%2C3-Dihydroxysuccinic-acid-Threaric-acid-Uvic-acid-10g/110",
        "category": {
          "id": 53,
          "name": "Carboxylic Acids",
          "breadcrumbs": "ORGANIC COMPOUNDS > Carboxylic Acids"
        },
        "product_codes": [
          {
            "label": "sku",
            "value": "231140914"
          },
          {
            "label": "ean",
            "value": "5906288608936"
          }
        ],
        "score": 179767.44,
        "rate": "0",
        "options_stock": false,
        "attributes": {
          "stock": "999 szt.",
          "producer_name": "SYNTHETIKA"
        },
        "promotion_price": null,
        "active": true,
        "availabilities": {
          "label": "Large quantity",
          "can_buy": true
        }
      },
      {
        "id": "106",
        "product_code": "231140895",
        "name": "Tartaric Acid - L(+)-Tartaric Acid - 2,3-Dihydroxysuccinic acid - Threaric acid - Uvic acid - 5000g",
        "price": "\u20ac79.21",
        "img": "/userdata/public/gfx/197/a4b7041cdfbfedc284018534d570df85.png",
        "imgWebp": "/userdata/public/gfx/197/a4b7041cdfbfedc284018534d570df85.webp",
        "url": "/en_US/p/Tartaric-Acid-L-Tartaric-Acid-2%2C3-Dihydroxysuccinic-acid-Threaric-acid-Uvic-acid-5000g/106",
        "category": {
          "id": 53,
          "name": "Carboxylic Acids",
          "breadcrumbs": "ORGANIC COMPOUNDS > Carboxylic Acids"
        },
        "product_codes": [
          {
            "label": "sku",
            "value": "231140895"
          },
          {
            "label": "ean",
            "value": "5906288608899"
          }
        ],
        "score": 179767.44,
        "rate": "0",
        "options_stock": false,
        "attributes": {
          "stock": "999 szt.",
          "producer_name": "SYNTHETIKA"
        },
        "promotion_price": null,
        "active": true,
        "availabilities": {
          "label": "Large quantity",
          "can_buy": true
        }
      },
      {
        "id": "107",
        "product_code": "231140899",
        "name": "Tartaric Acid - L(+)-Tartaric Acid - 2,3-Dihydroxysuccinic acid - Threaric acid - Uvic acid - 1000g",
        "price": "\u20ac17.71",
        "img": "/userdata/public/gfx/198/da1d7e48214ec0a370891a0133c4485a.png",
        "imgWebp": "/userdata/public/gfx/198/da1d7e48214ec0a370891a0133c4485a.webp",
        "url": "/en_US/p/Tartaric-Acid-L-Tartaric-Acid-2%2C3-Dihydroxysuccinic-acid-Threaric-acid-Uvic-acid-1000g/107",
        "category": {
          "id": 53,
          "name": "Carboxylic Acids",
          "breadcrumbs": "ORGANIC COMPOUNDS > Carboxylic Acids"
        },
        "product_codes": [
          {
            "label": "sku",
            "value": "231140899"
          },
          {
            "label": "ean",
            "value": "5906288608905"
          }
        ],
        "score": 179767.44,
        "rate": "0",
        "options_stock": false,
        "attributes": {
          "stock": "999 szt.",
          "producer_name": "SYNTHETIKA"
        },
        "promotion_price": null,
        "active": true,
        "availabilities": {
          "label": "Large quantity",
          "can_buy": true
        }
      },
      {
        "id": "109",
        "product_code": "231140908",
        "name": "Tartaric Acid - L(+)-Tartaric Acid - 2,3-Dihydroxysuccinic acid - Threaric acid - Uvic acid - - 100g",
        "price": "\u20ac4.66",
        "img": "/userdata/public/gfx/200/ccf65f0cf21b298767fb4a1d4a234ab7.png",
        "imgWebp": "/userdata/public/gfx/200/ccf65f0cf21b298767fb4a1d4a234ab7.webp",
        "url": "/en_US/p/Tartaric-Acid-L-Tartaric-Acid-2%2C3-Dihydroxysuccinic-acid-Threaric-acid-Uvic-acid-100g/109",
        "category": {
          "id": 53,
          "name": "Carboxylic Acids",
          "breadcrumbs": "ORGANIC COMPOUNDS > Carboxylic Acids"
        },
        "product_codes": [
          {
            "label": "sku",
            "value": "231140908"
          },
          {
            "label": "ean",
            "value": "5906288608929"
          }
        ],
        "score": 179767.44,
        "rate": "0",
        "options_stock": false,
        "attributes": {
          "stock": "997 szt.",
          "producer_name": "SYNTHETIKA"
        },
        "promotion_price": null,
        "active": true,
        "availabilities": {
          "label": "Large quantity",
          "can_buy": true
        }
      }
    ],
    "suggests": []
  }
}